[api-updater (non-obsolete-error-filter)] 2021-10-13 3:37:46 AM : Starting C:/Program Files/Unity/Hub/Editor/2020.3.1f1/Editor/Data/Tools/ScriptUpdater/APIUpdater.NonObsoleteApiUpdaterDetector.exe
[api-updater (non-obsolete-error-filter)] 
----------------------------------
jit/startup time      : 172.2412ms
moved types parse time: 49ms
candidates parse time : 2ms
C# parse time         : 294ms
candidates check time : 85ms
console write time    : 2ms

